[gd_scene load_steps=10 format=2]

[ext_resource path="res://Main.gd" type="Script" id=1]
[ext_resource path="res://Mob.tscn" type="PackedScene" id=2]
[ext_resource path="res://art/fondo.jpg" type="Texture" id=3]
[ext_resource path="res://Player.tscn" type="PackedScene" id=4]
[ext_resource path="res://HUD.tscn" type="PackedScene" id=5]
[ext_resource path="res://analog/analog.tscn" type="PackedScene" id=6]
[ext_resource path="res://art/musica.ogg" type="AudioStream" id=7]
[ext_resource path="res://art/gameover.wav" type="AudioStream" id=8]

[sub_resource type="Curve2D" id=1]
_data = {
"points": PoolVector2Array( 0, 0, 0, 0, 0, 3.8147e-06, 0, 0, 0, 0, 480, 3.8147e-06, 0, 0, 0, 0, 480, 720, 0, 0, 0, 0, 0, 720, 0, 0, 0, 0, 0, 3.8147e-06 )
}

[node name="Main" type="Node"]
script = ExtResource( 1 )
Mob = ExtResource( 2 )

[node name="Sprite" type="Sprite" parent="."]
position = Vector2( 225, 361 )
texture = ExtResource( 3 )

[node name="Player" parent="." instance=ExtResource( 4 )]
hide = true

[node name="MobTimer" type="Timer" parent="."]

[node name="ScoreTimer" type="Timer" parent="."]

[node name="StartTimer" type="Timer" parent="."]
wait_time = 2.0
one_shot = true

[node name="StartPosition" type="Position2D" parent="."]
position = Vector2( 240, 450 )

[node name="MobPath" type="Path2D" parent="."]
position = Vector2( 0, -3.8147e-06 )
curve = SubResource( 1 )

[node name="MobSpawnLocation" type="PathFollow2D" parent="MobPath"]
position = Vector2( 0, 3.8147e-06 )
rotation = -1.16367e-13

[node name="HUD" parent="." instance=ExtResource( 5 )]

[node name="AnalogArea" type="Control" parent="."]
margin_right = 480.0
margin_bottom = 720.0

[node name="Analog" parent="AnalogArea" instance=ExtResource( 6 )]
position = Vector2( 240, 450 )
isDynamicallyShowing = true
listenerNodePath = "/root/Main/Player"
padname = "analog"

[node name="Music" type="AudioStreamPlayer" parent="."]
stream = ExtResource( 7 )

[node name="DeathSound" type="AudioStreamPlayer" parent="."]
stream = ExtResource( 8 )
[connection signal="hit" from="Player" to="." method="game_over"]
[connection signal="timeout" from="MobTimer" to="." method="_on_MobTimer_timeout"]
[connection signal="timeout" from="ScoreTimer" to="." method="_on_ScoreTimer_timeout"]
[connection signal="timeout" from="StartTimer" to="." method="_on_StartTimer_timeout"]
[connection signal="start_game" from="HUD" to="." method="new_game"]
