; Engine configuration file.
; It's best edited using the editor UI and not directly,
; since the parameters that go here are not all obvious.
;
; Format:
;   [section] ; section goes between []
;   param=value ; assign values to parameters

config_version=4

_global_script_classes=[  ]
_global_script_class_icons={

}

[application]

config/name="jueguito_ccf"
run/main_scene="res://Main.tscn"
config/icon="res://icon.png"

[display]

window/size/width=480
window/size/height=720
window/size/test_width=480
window/size/test_height=720
window/handheld/orientation="portrait"
window/stretch/mode="2d"

[rendering]

environment/default_environment="res://default_env.tres"
